{
    "title": "Welcome!",
    "stylesheets": [
        "./styles/layout_base.css",
        "./styles/layout_nav_top.css",
        "./styles/theme_dark.css"
    ],
    "components": [
        {
            "type": "heading",
            "font": "'Indie Flower', fantasy",
            "fontSize": "48pt",
            "text": "Welcome to my ePortfolio!"
        }
    ]
}